More than two levels
…
## # A tibble: 2 x 3
##   level group   estimate
##   <chr> <chr>      <dbl>
## 1 AMAD  peak_id    3.23 
## 2 ANN1  peak_id   -0.999

We see that peak_id = AMAD (i.e.Ama Dablam) has a higher baseline success rate than peak_id = ANN1 (i.e.Annapurna I).

Lets look at some expeditions within AMAD (Ama Dablam.)

climbers %>% 
  filter(peak_id == "AMAD") %>% 
  distinct(expedition_id)

## # A tibble: 27 x 1
##    expedition_id
##    <chr>        
##  1 AMAD81101    
##  2 AMAD84401    
##  3 AMAD89102    
##  4 AMAD93304    
##  5 AMAD98311    
##  6 AMAD98316    
##  7 AMAD98402    
##  8 AMAD03107    
##  9 AMAD03327    
## 10 AMAD05338    
## # ... with 17 more rows
…
